## Interface: 60000
## Title: SMSNotifier
## Notes: Installed by the WOW SMSNotifier applicaiton, uninstall application to remove this addon.
## Version: 48879
## Author: TrumpetX
## SavedVariablesPerCharacter: smsEnabled, smsQueue, smsBgQueue, smsPetQueue

SMSNotifier.xml
SMSNotifier.lua